R 실습 노트 | Exobrain
…
R 코드 청크에 대한 참고링크

{r, echo=TRUE} 예시 실행코드까지 출력

library(dplyr)
library(gapminder)

## Warning: 패키지 'gapminder'는 R 버전 3.5.2에서 작성되었습니다

gapminder %>%
  select(country) %>%
  distinct()

## # A tibble: 142 x 1
##    country    
##    <fct>      
##  1 Afghanistan
##  2 Albania    
##  3 Algeria    
##  4 Angola     
##  5 Argentina  
##  6 Australia  
##  7 Austria    
##  8 Bahrain    
##  9 Bangladesh 
## 10 Belgium    
## # ... with 132 more rows

{r, echo=FALSE} 실행코드 출력 안하고, 결과만 출력

## # A tibble: 142 x 1
##    country    
##    <fct>      
##  1 Afghanistan
##  2 Albania    
##  3 Algeria    
##  4 Angola     
##  5 Argentina  
##  6 Australia  
##  7 Austria    
##  8 Bahrain    
##  9 Bangladesh 
## 10 Belgium    
## # ... with 132 more rows

library로 dplyr 패키지 로딩 안하기

library(gapminder)
gapminder %>%
  dplyr::select(country) %>%
  dplyr::distinct()

## # A tibble: 142 x 1
##    country    
##    <fct>      
##  1 Afghanistan
##  2 Albania    
##  3 Algeria    
##  4 Angola     
##  5 Argentina  
##  6 Australia  
##  7 Austria    
##  8 Bahrain    
##  9 Bangladesh 
## 10 Belgium    
## # ... with 132 more rows
…
